{
	"$schema": "http://json-schema.org/draft-07/schema#",
	"title": "NBA Schema",
	
	"definitions": {
		"state": {
			"type": "object",
			"properties": {
				"ID": { "type": "string" },
				"initial": { "type": "boolean" },
				"accepting": { "type": "boolean" }
			},
			"required": ["ID", "initial", "accepting"],
			"minProperties": 3,
			"maxProperties": 3
		},		
		"transition": {
			"type": "array",
			"description": "Array of [source ID, {trace event}, destination ID]",
			"items": [
                {"type": "string"}, 
                {"type": "array",
				 "items": {"type": "string"}
				}
            ],
			"minItems": 3,
			"maxItems": 3,
			"additionalProperties": false
		}
	},
	
	"type": "object",
	"properties": {
		"name": {
			"description": "Name to describe the requirement",
			"type": "string"
		},
		"split": {
			"description": "Optional indication on where to split iterations",
			"type": "array",
			"items": {"type": "string"},
            "minItems": 1
		},
		"automaton": {
			"type": "object",
			"properties": {
				"states": {
					"type": "array",
					"items": [{"$ref": "#/definitions/state"}],
					"minItems": 1
				},
				"transitions": {
					"type": "array",
					"items": [{"$ref": "#/definitions/transition"}],
					"minItems": 1
				}
			},
			"required": ["states", "transitions"],
			"additionalProperties": false,
			"minProperties": 2,
			"maxProperties": 2
		},
		"where": {
			"description": "Relation between events in the requirement and events in the trace",
			"type": "array",
			"items": {
				"type": "object",
				"properties": {
					"event": {"type": "string"},
					"on": {"type": "string"},
					"on parameters": {
						"type": "array",
						"minItems": 1,
						"items": {"type": ["string", "null"]}
					},
					"off": {"type": "string"},
					"off parameters": {
						"type": "array",
						"minItems": 1,
						"items": {"type": ["string", "null"]}
					}
				},
				"required": ["event", "on", "off"],
				"uniqueItems": true,
				"minProperties": 3,
				"maxProperties": 5
			}
		}
	},
	"required": ["name", "automaton"],
	"additionalProperties": false,
	"minProperties": 2,
	"maxProperties": 3
}