{
    "name": "Negated Example NBA",
    "automaton": {
        "states": [
            {
                "accepting": false,
                "ID": "N20",
                "initial": true
            },
            {
                "accepting": false,
                "ID": "N16",
                "initial": true
            }
        ],
        "transitions": [
		["N16",	["a","b"],	"N16"],
		["N16",	["a"],		"N16"],
		["N20",	["a","b"],	"N16"],
		["N16",	["b"],		"N16"],
		["N20",	["a"],		"N16"],
		["N16",	[],		"N20"],
		["N20",	[],		"N16"],
		["N20",	["b"],		"N16"],
		["N16",	[],		"N16"]
        ]
    },
    "split": null,
    "where": [
        {
            "event": "a",
            "off": "hw:barectf_ust_a",
            "off parameters": [
                null,
                "finish"
            ],
            "on": "hw:barectf_ust_a",
            "on parameters": [
                null,
                "start"
            ]
        },
        {
            "event": "b",
            "off": "hw:barectf_off_event",
            "off parameters": [
                "1"
            ],
            "on": "hw:barectf_on_event",
            "on parameters": [
                "1"
            ]
        },
        {
            "event": "c",
            "off": "hw:c_off",
            "off parameters": null,
            "on": "hw:c_on",
            "on parameters": null
        }
    ]
}
